{
  "uid" : "86dd23eb9393e842",
  "name" : "RetrieveRecord - List All",
  "historyId" : "6371c494b2221a6ef93ec604c5279cab",
  "time" : {
    "start" : 1655445459462,
    "stop" : 1655445460106,
    "duration" : 644
  },
  "descriptionHtml" : "<p style=\"color:MediumPurple;\"> <b>  </b> </p> <h4 style=\"color:DodgerBlue;\"><b><i>Request:</i></b></h4> <p style=\"color:DodgerBlue\"> <b> GET - https://reqres.in/api/users </b> </p>  <table> <tr> <th style=\"border: 1px solid #dddddd;text-align: left;padding: 8px;color:Orange;\">  </th> <td style=\"border: 1px solid #dddddd;text-align: left;padding: 8px;\"> <pre style=\"color:Orange\"> <b>  </b> </pre> </td> </tr>  </table> </p> <h4 style=\"color:DodgerBlue;\"> <b> <i> Response: </i> </b> </h4> <p style=\"color:DodgerBlue\"> <b> 200 - OK </b> </p> <p > <pre style=\"color:Orange;\"> <b> {\"page\":1,\"per_page\":6,\"total\":12,\"total_pages\":2,\"data\":[{\"id\":1,\"email\":\"george.bluth@reqres.in\",\"first_name\":\"George\",\"last_name\":\"Bluth\",\"avatar\":\"https://reqres.in/img/faces/1-image.jpg\"},{\"id\":2,\"email\":\"janet.weaver@reqres.in\",\"first_name\":\"Janet\",\"last_name\":\"Weaver\",\"avatar\":\"https://reqres.in/img/faces/2-image.jpg\"},{\"id\":3,\"email\":\"emma.wong@reqres.in\",\"first_name\":\"Emma\",\"last_name\":\"Wong\",\"avatar\":\"https://reqres.in/img/faces/3-image.jpg\"},{\"id\":4,\"email\":\"eve.holt@reqres.in\",\"first_name\":\"Eve\",\"last_name\":\"Holt\",\"avatar\":\"https://reqres.in/img/faces/4-image.jpg\"},{\"id\":5,\"email\":\"charles.morris@reqres.in\",\"first_name\":\"Charles\",\"last_name\":\"Morris\",\"avatar\":\"https://reqres.in/img/faces/5-image.jpg\"},{\"id\":6,\"email\":\"tracey.ramos@reqres.in\",\"first_name\":\"Tracey\",\"last_name\":\"Ramos\",\"avatar\":\"https://reqres.in/img/faces/6-image.jpg\"}],\"support\":{\"url\":\"https://reqres.in/#support-heading\",\"text\":\"To keep ReqRes free, contributions towards server costs are appreciated!\"}} </b> </pre> </p>",
  "status" : "passed",
  "flaky" : false,
  "newFailed" : false,
  "newBroken" : false,
  "newPassed" : false,
  "retriesCount" : 0,
  "retriesStatusChange" : false,
  "beforeStages" : [ ],
  "testStage" : {
    "descriptionHtml" : "<p style=\"color:MediumPurple;\"> <b>  </b> </p> <h4 style=\"color:DodgerBlue;\"><b><i>Request:</i></b></h4> <p style=\"color:DodgerBlue\"> <b> GET - https://reqres.in/api/users </b> </p>  <table> <tr> <th style=\"border: 1px solid #dddddd;text-align: left;padding: 8px;color:Orange;\">  </th> <td style=\"border: 1px solid #dddddd;text-align: left;padding: 8px;\"> <pre style=\"color:Orange\"> <b>  </b> </pre> </td> </tr>  </table> </p> <h4 style=\"color:DodgerBlue;\"> <b> <i> Response: </i> </b> </h4> <p style=\"color:DodgerBlue\"> <b> 200 - OK </b> </p> <p > <pre style=\"color:Orange;\"> <b> {\"page\":1,\"per_page\":6,\"total\":12,\"total_pages\":2,\"data\":[{\"id\":1,\"email\":\"george.bluth@reqres.in\",\"first_name\":\"George\",\"last_name\":\"Bluth\",\"avatar\":\"https://reqres.in/img/faces/1-image.jpg\"},{\"id\":2,\"email\":\"janet.weaver@reqres.in\",\"first_name\":\"Janet\",\"last_name\":\"Weaver\",\"avatar\":\"https://reqres.in/img/faces/2-image.jpg\"},{\"id\":3,\"email\":\"emma.wong@reqres.in\",\"first_name\":\"Emma\",\"last_name\":\"Wong\",\"avatar\":\"https://reqres.in/img/faces/3-image.jpg\"},{\"id\":4,\"email\":\"eve.holt@reqres.in\",\"first_name\":\"Eve\",\"last_name\":\"Holt\",\"avatar\":\"https://reqres.in/img/faces/4-image.jpg\"},{\"id\":5,\"email\":\"charles.morris@reqres.in\",\"first_name\":\"Charles\",\"last_name\":\"Morris\",\"avatar\":\"https://reqres.in/img/faces/5-image.jpg\"},{\"id\":6,\"email\":\"tracey.ramos@reqres.in\",\"first_name\":\"Tracey\",\"last_name\":\"Ramos\",\"avatar\":\"https://reqres.in/img/faces/6-image.jpg\"}],\"support\":{\"url\":\"https://reqres.in/#support-heading\",\"text\":\"To keep ReqRes free, contributions towards server costs are appreciated!\"}} </b> </pre> </p>",
    "status" : "passed",
    "steps" : [ {
      "name" : "Verify request status",
      "time" : {
        "start" : 1655445460102,
        "stop" : 1655445460102,
        "duration" : 0
      },
      "status" : "passed",
      "steps" : [ ],
      "attachments" : [ ],
      "parameters" : [ ],
      "stepsCount" : 0,
      "attachmentsCount" : 0,
      "shouldDisplayMessage" : false,
      "hasContent" : false
    } ],
    "attachments" : [ {
      "uid" : "7f7b2b3b71e0ff0c",
      "name" : "pre_request",
      "source" : "7f7b2b3b71e0ff0c.txt",
      "type" : "text/plain",
      "size" : 764
    }, {
      "uid" : "9fb823573bfb5999",
      "name" : "test_scrpt",
      "source" : "9fb823573bfb5999.txt",
      "type" : "text/plain",
      "size" : 76
    } ],
    "parameters" : [ ],
    "stepsCount" : 1,
    "attachmentsCount" : 2,
    "shouldDisplayMessage" : false,
    "hasContent" : true
  },
  "afterStages" : [ ],
  "labels" : [ {
    "name" : "story",
    "value" : "api/users"
  }, {
    "name" : "resultFormat",
    "value" : "allure2"
  } ],
  "parameters" : [ ],
  "links" : [ ],
  "hidden" : false,
  "retry" : false,
  "extra" : {
    "severity" : "normal",
    "retries" : [ ],
    "categories" : [ ],
    "tags" : [ ]
  },
  "source" : "86dd23eb9393e842.json",
  "parameterValues" : [ ]
}